\relax 
\providecommand*\new@tpo@label[2]{}
\catcode `"\active 
\babel@aux{ngerman}{}
\@writefile{toc}{\contentsline {section}{\numberline {1}Preliminaries}{1}}
\@writefile{toc}{\contentsline {section}{\numberline {2}Perturbation and occupation numbers}{2}}
\@writefile{toc}{\contentsline {paragraph}{\nonumberline Check~1.}{3}}
\@writefile{toc}{\contentsline {paragraph}{\nonumberline Check~2.}{3}}
\@writefile{toc}{\contentsline {paragraph}{\nonumberline Example: two-level system.}{4}}
\@writefile{toc}{\contentsline {paragraph}{\nonumberline Linear chain of two-level systems.}{5}}
\@writefile{toc}{\contentsline {section}{\numberline {3}Coupling to a bath -- open systems}{6}}
\@writefile{toc}{\contentsline {paragraph}{\nonumberline Example.}{10}}
\@writefile{toc}{\contentsline {paragraph}{\nonumberline Example: application to the two-level system.}{11}}
\@writefile{toc}{\contentsline {paragraph}{\nonumberline Example continued: transition between two levels in the presence of more levels.}{12}}
\@writefile{toc}{\contentsline {paragraph}{\nonumberline Example continued: application to the two-level system}{14}}
\@writefile{toc}{\contentsline {section}{\numberline {A}Time evolution of bulk systems in tight-binding formulation}{15}}
\global\csname @altsecnumformattrue\endcsname
