\relax 
\providecommand*\new@tpo@label[2]{}
\@writefile{toc}{\contentsline {chapter}{\numberline {1}Lattice geometry}{2}}
\@writefile{lof}{\addvspace {10\p@ }}
\@writefile{lot}{\addvspace {10\p@ }}
\@writefile{lof}{\contentsline {figure}{\numberline {1.1}{\ignorespaces Honeycomb lattice and its Brillouin zone. Ignore the coordinate system or replace $x \leftrightarrow y$..}}{2}}
