0 0.970452 0.000296423
0.25 0.970452 0.000293375
0.5 0.970452 0.000290361
0.75 0.970452 0.000287387
1 0.970452 0.000284458
1.25 0.970452 0.000281581
1.5 0.970452 0.000278758
1.75 0.970452 0.000275989
2 0.970452 0.000273264
2.25 0.970452 0.000270575
2.5 0.970452 0.000267909
2.75 0.970452 0.000265255
3 0.970452 0.000262603
3.25 0.970452 0.000259951
3.5 0.970452 0.000257296
3.75 0.970452 0.000254644
4 0.970452 0.000251998
4.25 0.970452 0.000249365
4.5 0.970452 0.000246751
4.75 0.970452 0.000244162
5 0.970452 0.000241601
5.25 0.970452 0.000239071
5.5 0.970452 0.000236575
5.75 0.970452 0.000234113
6 0.970452 0.000231688
6.25 0.970452 0.000229297
6.5 0.970452 0.000226941
6.75 0.970452 0.000224617
7 0.970452 0.000222323
7.25 0.970452 0.000220055
7.5 0.970452 0.000217811
7.75 0.970452 0.000215589
8 0.970452 0.000213386
8.25 0.970452 0.000211203
8.5 0.970452 0.00020904
8.75 0.970452 0.000206895
9 0.970452 0.000204769
9.25 0.970452 0.000202664
9.5 0.970452 0.000200579
9.75 0.970452 0.000198515
10 0.970452 0.000196472
10.25 0.970452 0.000194452
10.5 0.970452 0.000192455
10.75 0.970452 0.000190481
11 0.970452 0.000188531
11.25 0.970452 0.000186605
11.5 0.970452 0.000184703
11.75 0.970452 0.000182825
12 0.970452 0.00018097
12.25 0.970452 0.000179139
12.5 0.970452 0.00017733
12.75 0.970452 0.00017554
13 0.970452 0.000173769
13.25 0.970452 0.000172014
13.5 0.970452 0.000170273
13.75 0.970452 0.000168544
14 0.970452 0.000166827
14.25 0.970452 0.000165122
14.5 0.970452 0.000163432
14.75 0.970452 0.000161763
15 0.970452 0.000160118
15.25 0.970452 0.000158502
15.5 0.970452 0.000156918
15.75 0.970452 0.000155365
16 0.970452 0.00015384
16.25 0.970452 0.000152337
16.5 0.970452 0.000150847
16.75 0.970452 0.000149363
17 0.970452 0.000147881
17.25 0.970452 0.000146402
17.5 0.970452 0.000144931
17.75 0.970452 0.000143478
18 0.970452 0.000142055
18.25 0.970452 0.000140673
18.5 0.970452 0.000139337
18.75 0.970452 0.000138045
19 0.970452 0.000136788
19.25 0.970452 0.000135552
19.5 0.970452 0.000134318
19.75 0.970452 0.000133069
20 0.970452 0.000131793
20.25 0.970452 0.000130484
20.5 0.970452 0.000129145
20.75 0.970452 0.000127782
21 0.970451 0.000126407
21.25 0.970451 0.000125033
21.5 0.970452 0.000123669
21.75 0.970452 0.000122324
22 0.970452 0.000121002
22.25 0.970452 0.000119707
22.5 0.970452 0.000118443
22.75 0.970452 0.000117212
23 0.970452 0.000116018
23.25 0.970452 0.000114859
23.5 0.970452 0.000113736
23.75 0.970452 0.000112642
24 0.970452 0.000111571
24.25 0.970452 0.000110513
24.5 0.970452 0.000109461
24.75 0.970452 0.00010841
25 0.970452 0.000107358
25.25 0.970452 0.000106309
25.5 0.970452 0.000105269
25.75 0.970452 0.000104245
26 0.970452 0.000103245
26.25 0.970452 0.000102273
26.5 0.970451 0.000101333
26.75 0.970451 0.000100425
27 0.970451 9.95517e-05
27.25 0.970451 9.87134e-05
27.5 0.970451 9.79121e-05
27.75 0.970452 9.71492e-05
28 0.970452 9.64241e-05
28.25 0.970452 9.57331e-05
28.5 0.970452 9.50688e-05
28.75 0.970452 9.44208e-05
29 0.970452 9.37772e-05
29.25 0.970452 9.31279e-05
29.5 0.970452 9.24667e-05
29.75 0.970452 9.17932e-05
30 0.970452 9.11134e-05
30.25 0.970452 9.04376e-05
30.5 0.970452 8.97787e-05
30.75 0.970452 8.91488e-05
31 0.970452 8.85565e-05
31.25 0.970452 8.8006e-05
31.5 0.970452 8.74967e-05
31.75 0.970452 8.70249e-05
32 0.970452 8.65855e-05
32.25 0.970452 8.61747e-05
32.5 0.970452 8.5791e-05
32.75 0.970452 8.5436e-05
33 0.970452 8.51143e-05
33.25 0.970451 8.48321e-05
33.5 0.970451 8.45962e-05
33.75 0.970451 8.44131e-05
34 0.970451 8.42883e-05
34.25 0.970451 8.42267e-05
34.5 0.970451 8.4233e-05
34.75 0.970451 8.43115e-05
35 0.970451 8.44667e-05
35.25 0.970451 8.47023e-05
35.5 0.970451 8.50206e-05
35.75 0.970451 8.54216e-05
36 0.970451 8.59031e-05
36.25 0.970451 8.64618e-05
36.5 0.970451 8.70957e-05
36.75 0.970451 8.78072e-05
37 0.970451 8.86068e-05
37.25 0.970451 8.95151e-05
37.5 0.970451 9.05637e-05
37.75 0.970451 9.17925e-05
38 0.970451 9.32467e-05
38.25 0.970451 9.4971e-05
38.5 0.97045 9.70058e-05
38.75 0.97045 9.93848e-05
39 0.97045 0.000102135
39.25 0.97045 0.00010528
39.5 0.97045 0.000108847
39.75 0.97045 0.000112867
40 0.97045 0.000117382
40.25 0.97045 0.000122446
40.5 0.970449 0.000128121
40.75 0.970449 0.00013448
41 0.970449 0.000141604
41.25 0.970449 0.00014959
41.5 0.970448 0.000158557
41.75 0.970448 0.000168656
42 0.970448 0.000180083
42.25 0.970447 0.000193084
42.5 0.970447 0.000207959
42.75 0.970446 0.000225054
43 0.970446 0.000244765
43.25 0.970445 0.000267532
43.5 0.970444 0.000293851
43.75 0.970443 0.000324294
44 0.970442 0.000359548
44.25 0.970441 0.000400457
44.5 0.970439 0.000448072
44.75 0.970437 0.000503699
45 0.970435 0.000568948
45.25 0.970433 0.00064579
45.5 0.97043 0.000736638
45.75 0.970427 0.000844465
46 0.970423 0.000972981
46.25 0.970419 0.00112689
46.5 0.970414 0.00131219
46.75 0.970407 0.00153659
47 0.9704 0.00180985
47.25 0.970391 0.00214429
47.5 0.97038 0.0025551
47.75 0.970366 0.00306069
48 0.970349 0.00368282
48.25 0.970328 0.00444649
48.5 0.970303 0.00537922
48.75 0.970271 0.0065094
49 0.970233 0.00786321
49.25 0.970187 0.00945976
49.5 0.970132 0.0113043
49.75 0.970068 0.0133809
50 0.969995 0.0156456
50.25 0.969914 0.0180243
50.5 0.969828 0.0204158
50.75 0.969741 0.0227016
51 0.969658 0.0247605
51.25 0.969586 0.0264827
51.5 0.969533 0.027783
51.75 0.969506 0.0286075
52 0.969511 0.0289358
52.25 0.969553 0.0287787
52.5 0.969635 0.0281731
52.75 0.969757 0.0271759
53 0.969915 0.0258568
53.25 0.970106 0.0242926
53.5 0.97032 0.0225616
53.75 0.970548 0.0207388
54 0.97078 0.018893
54.25 0.971006 0.0170831
54.5 0.971215 0.0153572
54.75 0.9714 0.0137507
55 0.971555 0.012287
55.25 0.971676 0.0109776
55.5 0.971762 0.00982378
55.75 0.971816 0.00881833
56 0.971841 0.00794754
56.25 0.971842 0.00719352
56.5 0.971827 0.00653626
56.75 0.971803 0.0059555
57 0.971777 0.00543234
57.25 0.971756 0.00495038
57.5 0.971745 0.00449648
57.75 0.971747 0.00406117
58 0.971766 0.0036386
58.25 0.971802 0.00322633
58.5 0.971853 0.00282479
58.75 0.971919 0.00243666
59 0.971996 0.00206617
59.25 0.97208 0.00171848
59.5 0.972168 0.00139907
59.75 0.972255 0.00111331
60 0.972338 0.00086614
60.25 0.972412 0.000661865
60.5 0.972475 0.000504099
60.75 0.972523 0.000395735
61 0.972554 0.000338964
61.25 0.972565 0.000335289
61.5 0.972554 0.000385494
61.75 0.972519 0.000489563
62 0.97246 0.000646548
62.25 0.972375 0.000854378
62.5 0.972265 0.00110967
62.75 0.972133 0.00140754
63 0.971979 0.0017415
63.25 0.971808 0.0021035
63.5 0.971625 0.00248403
63.75 0.971434 0.00287254
64 0.971242 0.00325795
64.25 0.971055 0.00362937
64.5 0.970877 0.00397695
64.75 0.970712 0.0042927
65 0.970563 0.00457132
65.25 0.970431 0.00481083
65.5 0.970311 0.00501296
65.75 0.970199 0.00518315
66 0.970088 0.00533023
66.25 0.969966 0.00546572
66.5 0.969823 0.00560285
66.75 0.969647 0.00575531
67 0.969426 0.00593592
67.25 0.96915 0.00615541
67.5 0.968814 0.00642129
67.75 0.968414 0.00673695
68 0.967952 0.0071012
68.25 0.967438 0.00750813
68.5 0.966882 0.00794729
68.75 0.966303 0.00840435
69 0.965723 0.008862
69.25 0.965165 0.00930107
69.5 0.964656 0.00970192
69.75 0.96422 0.0100458
70 0.963878 0.0103161
70.25 0.963647 0.0104998
70.5 0.963539 0.0105883
70.75 0.963558 0.0105782
71 0.963699 0.0104715
71.25 0.963951 0.0102756
71.5 0.964295 0.0100026
71.75 0.964707 0.00966867
72 0.965158 0.00929267
72.25 0.965616 0.00889491
72.5 0.966052 0.00849564
72.75 0.966436 0.00811367
73 0.966745 0.00776507
73.25 0.966963 0.00746216
73.5 0.96708 0.00721277
73.75 0.967094 0.00701989
74 0.967013 0.00688165
74.25 0.966853 0.00679171
74.5 0.966635 0.00673998
74.75 0.966385 0.00671356
75 0.966133 0.00669789
75.25 0.965909 0.00667792
75.5 0.96574 0.00663936
75.75 0.965651 0.00656968
76 0.965662 0.00645901
76.25 0.965783 0.00630072
76.5 0.966021 0.00609175
76.75 0.966372 0.00583261
77 0.966828 0.00552714
77.25 0.967374 0.00518201
77.5 0.96799 0.00480609
77.75 0.968655 0.00440962
78 0.969344 0.00400346
78.25 0.970035 0.00359829
78.5 0.970708 0.00320389
78.75 0.971344 0.00282864
79 0.971929 0.0024791
79.25 0.972455 0.00215982
79.5 0.972917 0.00187334
79.75 0.973313 0.00162029
80 0.973645 0.00139971
80.25 0.97392 0.0012094
80.5 0.974144 0.00104628
80.75 0.974324 0.000906837
81 0.974468 0.000787452
81.25 0.974584 0.000684698
81.5 0.974678 0.000595551
81.75 0.974754 0.000517519
82 0.974816 0.000448687
82.25 0.974866 0.000387716
82.5 0.974906 0.000333787
82.75 0.974936 0.000286535
83 0.974954 0.000245971
83.25 0.974962 0.00021242
83.5 0.974956 0.00018647
83.75 0.974937 0.00016894
84 0.9749 0.000160867
84.25 0.974845 0.000163485
84.5 0.974767 0.000178206
84.75 0.974663 0.000206576
85 0.97453 0.000250202
85.25 0.974361 0.00031065
85.5 0.974153 0.000389297
85.75 0.973902 0.000487167
86 0.973605 0.00060474
86.25 0.97326 0.000741779
86.5 0.972868 0.000897168
86.75 0.972433 0.00106881
87 0.971961 0.00125361
87.25 0.971462 0.00144749
87.5 0.970947 0.00164559
87.75 0.970431 0.00184248
88 0.96993 0.00203248
88.25 0.969457 0.00221005
88.5 0.969029 0.00237023
88.75 0.968656 0.00250897
89 0.968345 0.00262358
89.25 0.9681 0.00271292
89.5 0.967917 0.0027776
89.75 0.967788 0.00282
90 0.967697 0.00284415
90.25 0.967627 0.00285547
90.5 0.967553 0.00286032
90.75 0.967451 0.0028656
91 0.967298 0.00287809
91.25 0.96707 0.00290393
91.5 0.966752 0.00294804
91.75 0.966332 0.00301371
92 0.965808 0.0031022
92.25 0.965186 0.00321259
92.5 0.964482 0.0033418
92.75 0.96372 0.00348471
93 0.96293 0.00363454
93.25 0.96215 0.00378335
93.5 0.961418 0.00392257
93.75 0.960774 0.00404367
94 0.960254 0.00413882
94.25 0.959888 0.00420142
94.5 0.9597 0.00422665
94.75 0.959701 0.00421179
95 0.959894 0.0041564
95.25 0.96027 0.00406235
95.5 0.960807 0.00393362
95.75 0.961478 0.00377599
96 0.962245 0.00359656
96.25 0.963069 0.00340322
96.5 0.963907 0.00320408
96.75 0.96472 0.00300688
97 0.96547 0.00281849
97.25 0.96613 0.0026445
97.5 0.966678 0.00248893
97.75 0.967105 0.00235404
98 0.967409 0.00224037
98.25 0.9676 0.00214681
98.5 0.967695 0.00207084
98.75 0.967719 0.00200887
99 0.967699 0.00195658
99.25 0.967666 0.00190936
99.5 0.967649 0.00186266
99.75 0.967675 0.00181236
100 0.967766 0.00175506
100.25 0.967938 0.00168832
100.5 0.968201 0.00161071
100.75 0.968555 0.00152189
101 0.968997 0.00142252
101.25 0.969516 0.00131413
101.5 0.970096 0.00119893
101.75 0.970721 0.00107957
102 0.97137 0.000958915
102.25 0.972023 0.000839828
102.5 0.972663 0.000724966
102.75 0.973273 0.000616633
103 0.973841 0.000516679
103.25 0.974356 0.000426447
103.5 0.974813 0.000346772
103.75 0.975207 0.000278014
104 0.97554 0.000220122
104.25 0.975811 0.000172715
104.5 0.976024 0.000135165
104.75 0.976182 0.000106679
105 0.97629 8.63699e-05
105.25 0.976351 7.33116e-05
105.5 0.97637 6.65774e-05
105.75 0.976351 6.52668e-05
106 0.976297 6.85213e-05
106.25 0.976213 7.55359e-05
106.5 0.976101 8.55701e-05
106.75 0.975967 9.7964e-05
107 0.975813 0.00011216
107.25 0.975642 0.000127729
107.5 0.975457 0.000144407
107.75 0.97526 0.000162123
108 0.97505 0.000181026
108.25 0.974825 0.0002015
108.5 0.974583 0.000224156
108.75 0.974316 0.000249807
109 0.974018 0.000279415
109.25 0.973681 0.000314011
109.5 0.973296 0.0003546
109.75 0.972855 0.000402046
110 0.972352 0.000456957
110.25 0.971783 0.000519577
110.5 0.97115 0.000589694
110.75 0.970457 0.000666584
111 0.969714 0.000748983
111.25 0.968937 0.00083512
111.5 0.968146 0.000922786
111.75 0.967364 0.00100945
112 0.966616 0.00109241
112.25 0.965929 0.001169
112.5 0.965325 0.00123673
112.75 0.964825 0.00129354
113 0.964445 0.00133791
113.25 0.96419 0.00136904
113.5 0.96406 0.00138691
113.75 0.964045 0.00139231
114 0.964127 0.00138678
114.25 0.964278 0.00137257
114.5 0.964468 0.00135242
114.75 0.964661 0.0013294
115 0.964821 0.00130666
115.25 0.964914 0.00128717
115.5 0.964911 0.00127353
115.75 0.964789 0.00126771
116 0.964539 0.00127093
116.25 0.964158 0.00128351
116.5 0.963657 0.00130488
116.75 0.963058 0.00133361
117 0.962393 0.00136751
117.25 0.9617 0.00140384
117.5 0.961023 0.00143947
117.75 0.960407 0.00147117
118 0.959896 0.00149585
118.25 0.959529 0.0015108
118.5 0.959337 0.00151385
118.75 0.959339 0.00150356
119 0.959547 0.00147932
119.25 0.959955 0.00144132
119.5 0.960551 0.00139056
119.75 0.961308 0.00132872
120 0.962193 0.00125802
120.25 0.963166 0.00118108
120.5 0.964186 0.00110066
120.75 0.965209 0.0010195
121 0.966197 0.000940115
121.25 0.967117 0.000864678
121.5 0.967943 0.000794859
121.75 0.968656 0.000731786
122 0.969251 0.000676009
122.25 0.969729 0.000627535
122.5 0.970099 0.000585887
122.75 0.970377 0.0005502
123 0.970585 0.000519342
123.25 0.970746 0.000492034
123.5 0.970884 0.000466976
123.75 0.971021 0.000442955
124 0.971177 0.000418939
124.25 0.971367 0.000394133
124.5 0.9716 0.000368025
124.75 0.97188 0.000340386
125 0.972208 0.000311256
125.25 0.972577 0.000280911
125.5 0.972979 0.000249805
125.75 0.973403 0.000218521
126 0.973837 0.000187702
126.25 0.974268 0.000158005
126.5 0.974684 0.000130051
126.75 0.975075 0.000104391
127 0.975432 8.14848e-05
127.25 0.975746 6.16868e-05
127.5 0.976013 4.52482e-05
127.75 0.976229 3.23201e-05
128 0.976392 2.29638e-05
128.25 0.976499 1.71609e-05
128.5 0.976551 1.48229e-05
128.75 0.976548 1.57986e-05
129 0.97649 1.98778e-05
129.25 0.976381 2.67937e-05
129.5 0.976223 3.62238e-05
129.75 0.97602 4.77924e-05
130 0.975778 6.10752e-05
130.25 0.975503 7.56107e-05
130.5 0.975202 9.09156e-05
130.75 0.974885 0.000106509
131 0.974558 0.00012194
131.25 0.974231 0.000136821
131.5 0.973909 0.000150861
131.75 0.973596 0.000163894
132 0.973294 0.000175905
132.25 0.973 0.000187039
132.5 0.972708 0.000197606
132.75 0.972409 0.000208059
133 0.97209 0.000218964
133.25 0.971737 0.000230959
133.5 0.971334 0.000244693
133.75 0.970867 0.000260766
134 0.970323 0.000279663
134.25 0.969695 0.000301699
134.5 0.968981 0.000326965
134.75 0.968183 0.000355297
135 0.967314 0.000386266
135.25 0.966393 0.000419176
135.5 0.965445 0.000453104
135.75 0.964501 0.000486947
136 0.963595 0.00051949
136.25 0.962764 0.000549492
136.5 0.96204 0.000575773
136.75 0.961454 0.000597301
137 0.961028 0.000613275
137.25 0.960778 0.000623189
137.5 0.960705 0.000626874
137.75 0.960804 0.000624519
138 0.961055 0.000616659
138.25 0.961431 0.00060414
138.5 0.961894 0.000588059
138.75 0.962402 0.00056968
139 0.962912 0.000550345
139.25 0.963379 0.000531371
139.5 0.963765 0.000513956
139.75 0.964038 0.00049909
140 0.964176 0.000487488
140.25 0.964168 0.000479543
140.5 0.964017 0.000475302
140.75 0.963738 0.000474478
141 0.963356 0.000476478
141.25 0.962906 0.00048046
141.5 0.962431 0.000485411
141.75 0.961975 0.000490223
142 0.961582 0.000493791
142.25 0.961294 0.000495091
142.5 0.961147 0.000493262
142.75 0.961165 0.000487659
143 0.961364 0.000477899
143.25 0.961748 0.000463873
143.5 0.962309 0.000445746
143.75 0.96303 0.00042393
144 0.963885 0.000399042
144.25 0.964839 0.000371846
144.5 0.965857 0.000343197
144.75 0.9669 0.00031397
145 0.967933 0.000284999
145.25 0.968924 0.000257029
145.5 0.969845 0.000230669
145.75 0.970679 0.000206371
146 0.971413 0.000184414
146.25 0.972043 0.00016491
146.5 0.972572 0.000147817
146.75 0.973008 0.000132972
147 0.973363 0.000120116
147.25 0.973653 0.000108934
147.5 0.973894 9.90902e-05
147.75 0.974101 9.02574e-05
148 0.974288 8.2143e-05
148.25 0.974466 7.45071e-05
148.5 0.974644 6.71727e-05
148.75 0.974825 6.0029e-05
149 0.975012 5.30281e-05
149.25 0.975203 4.61774e-05
149.5 0.975396 3.9529e-05
149.75 0.975587 3.31677e-05
150 0.975768 2.71991e-05
150.25 0.975936 2.174e-05
150.5 0.976085 1.691e-05
150.75 0.976208 1.28252e-05
151 0.976302 9.59517e-06
151.25 0.976362 7.32014e-06
151.5 0.976383 6.08959e-06
151.75 0.976361 5.98058e-06
152 0.976293 7.05538e-06
152.25 0.976175 9.35788e-06
152.5 0.976003 1.29087e-05
152.75 0.975776 1.76993e-05
153 0.975493 2.36861e-05
153.25 0.975155 3.07844e-05
153.5 0.974766 3.88651e-05
153.75 0.974331 4.77539e-05
154 0.97386 5.72334e-05
154.25 0.973362 6.70512e-05
154.5 0.972852 7.6931e-05
154.75 0.972343 8.65881e-05
155 0.97185 9.57489e-05
155.25 0.971386 0.000104171
155.5 0.970962 0.000111661
155.75 0.970586 0.000118099
156 0.97026 0.000123445
156.25 0.969982 0.000127751
156.5 0.969742 0.000131161
156.75 0.969527 0.000133904
157 0.969317 0.000136279
157.25 0.96909 0.000138633
157.5 0.968823 0.000141329
157.75 0.968491 0.000144721
158 0.968074 0.000149118
158.25 0.967556 0.000154752
158.5 0.966929 0.000161758
158.75 0.966193 0.000170148
159 0.965358 0.00017981
159.25 0.964441 0.000190505
159.5 0.963473 0.000201877
159.75 0.962487 0.000213479
160 0.961526 0.000224802
160.25 0.960633 0.00023531
160.5 0.959849 0.000244479
160.75 0.959215 0.000251838
161 0.958762 0.000257002
161.25 0.958512 0.000259705
161.5 0.958476 0.000259816
161.75 0.958653 0.000257352
162 0.959027 0.000252475
162.25 0.959572 0.00024548
162.5 0.960252 0.000236771
162.75 0.961023 0.000226829
163 0.961836 0.000216181
163.25 0.962643 0.000205356
163.5 0.963398 0.000194852
163.75 0.96406 0.0001851
164 0.9646 0.000176438
164.25 0.964998 0.00016909
164.5 0.965247 0.000163159
164.75 0.965352 0.000158627
165 0.96533 0.000155358
165.25 0.965208 0.000153124
165.5 0.965021 0.000151621
165.75 0.964808 0.000150504
166 0.96461 0.000149409
166.25 0.964465 0.000147989
166.5 0.964408 0.000145939
166.75 0.964466 0.000143015
167 0.964657 0.000139052
167.25 0.964991 0.000133971
167.5 0.965466 0.000127777
167.75 0.966073 0.000120558
168 0.966793 0.000112467
168.25 0.967602 0.000103711
168.5 0.968472 9.45273e-05
168.75 0.969375 8.51662e-05
169 0.97028 7.58727e-05
169.25 0.971162 6.68699e-05
169.5 0.971998 5.83465e-05
169.75 0.97277 5.04492e-05
170 0.973467 4.32782e-05
170.25 0.974081 3.6888e-05
170.5 0.974611 3.1291e-05
170.75 0.975059 2.64642e-05
171 0.97543 2.23569e-05
171.25 0.975733 1.89003e-05
171.5 0.975976 1.60153e-05
171.75 0.976168 1.36205e-05
172 0.976317 1.16384e-05
172.25 0.97643 9.99919e-06
172.5 0.976512 8.64374e-06
172.75 0.976568 7.52442e-06
173 0.976601 6.60496e-06
173.25 0.976613 5.8595e-06
173.5 0.976604 5.27139e-06
173.75 0.976577 4.83204e-06
174 0.97653 4.54012e-06
174.25 0.976465 4.40122e-06
174.5 0.976379 4.4279e-06
174.75 0.976273 4.63986e-06
175 0.976143 5.0642e-06
175.25 0.975986 5.73502e-06
175.5 0.975798 6.69248e-06
175.75 0.975572 7.98074e-06
176 0.975303 9.64486e-06
176.25 0.974985 1.17267e-05
176.5 0.97461 1.42599e-05
176.75 0.974175 1.72647e-05
177 0.973676 2.07427e-05
177.25 0.973115 2.46725e-05
177.5 0.972496 2.90067e-05
177.75 0.971828 3.36708e-05
178 0.971124 3.85644e-05
178.25 0.9704 4.35645e-05
178.5 0.969677 4.85322e-05
178.75 0.968977 5.33205e-05
179 0.968322 5.77841e-05
179.25 0.967733 6.17899e-05
179.5 0.967228 6.5228e-05
179.75 0.966819 6.80205e-05
180 0.966511 7.01294e-05
180.25 0.966302 7.15616e-05
180.5 0.966183 7.23701e-05
180.75 0.966134 7.26517e-05
181 0.966132 7.25411e-05
181.25 0.966145 7.22012e-05
181.5 0.96614 7.18105e-05
181.75 0.966084 7.15493e-05
182 0.965946 7.1584e-05
182.25 0.9657 7.20534e-05
182.5 0.965329 7.30556e-05
182.75 0.964826 7.46389e-05
183 0.964194 7.67963e-05
183.25 0.963449 7.94648e-05
183.5 0.962616 8.25289e-05
183.75 0.961734 8.5829e-05
184 0.960844 8.91732e-05
184.25 0.959995 9.23517e-05
184.5 0.959235 9.51527e-05
184.75 0.95861 9.73786e-05
185 0.958159 9.88603e-05
185.25 0.957912 9.947e-05
185.5 0.957889 9.913e-05
185.75 0.958094 9.78178e-05
186 0.95852 9.5567e-05
186.25 0.959145 9.24633e-05
186.5 0.959938 8.86376e-05
186.75 0.960858 8.42553e-05
187 0.961857 7.95034e-05
187.25 0.962887 7.45767e-05
187.5 0.963899 6.9664e-05
187.75 0.964849 6.49355e-05
188 0.965703 6.05321e-05
188.25 0.966434 5.65577e-05
188.5 0.967027 5.30752e-05
188.75 0.967478 5.01052e-05
189 0.967796 4.76285e-05
189.25 0.967997 4.55915e-05
189.5 0.968106 4.39139e-05
189.75 0.968154 4.24972e-05
190 0.968173 4.12349e-05
190.25 0.968197 4.00214e-05
190.5 0.968254 3.87609e-05
190.75 0.968369 3.73741e-05
191 0.968562 3.58029e-05
191.25 0.968842 3.40132e-05
191.5 0.969212 3.19955e-05
191.75 0.96967 2.97629e-05
192 0.970204 2.73479e-05
192.25 0.9708 2.47983e-05
192.5 0.971439 2.21714e-05
192.75 0.972102 1.95295e-05
193 0.972767 1.69345e-05
193.25 0.973417 1.44438e-05
193.5 0.974034 1.21071e-05
193.75 0.974607 9.96449e-06
194 0.975124 8.04523e-06
194.25 0.97558 6.36781e-06
194.5 0.97597 4.94074e-06
194.75 0.976294 3.76392e-06
195 0.976552 2.83025e-06
195.25 0.976748 2.12732e-06
195.5 0.976883 1.63895e-06
195.75 0.976962 1.34649e-06
196 0.976989 1.22975e-06
196.25 0.976967 1.26762e-06
196.5 0.9769 1.43848e-06
196.75 0.976793 1.72049e-06
197 0.976651 2.09187e-06
197.25 0.976479 2.53132e-06
197.5 0.976282 3.01871e-06
197.75 0.976065 3.53594e-06
198 0.975833 4.06807e-06
198.25 0.975591 4.60451e-06
198.5 0.975341 5.14026e-06
198.75 0.975085 5.6768e-06
199 0.97482 6.22271e-06
199.25 0.974542 6.79362e-06
199.5 0.974245 7.41154e-06
199.75 0.973918 8.10347e-06
