\relax 
\select@language{english}
\@writefile{toc}{\select@language{english}}
\@writefile{lof}{\select@language{english}}
\@writefile{lot}{\select@language{english}}
\select@language{english}
\@writefile{toc}{\select@language{english}}
\@writefile{lof}{\select@language{english}}
\@writefile{lot}{\select@language{english}}
\@writefile{toc}{\contentsline {paragraph}{Example.}{1}}
\@writefile{lof}{\contentsline {figure}{\numberline {0.1}{\ignorespaces Photoemission setups in Markus Donath's group.}}{1}}
\newlabel{fig:setups}{{0.1}{1}}
\@writefile{lot}{\contentsline {table}{\numberline {0.1}{\ignorespaces Angles for the setups of figure~\ref  {fig:setups}.}}{1}}
\newlabel{tab:angles}{{0.1}{1}}
\@writefile{toc}{\contentsline {paragraph}{Example -- rotation about the $x$ axis.}{2}}
\@writefile{toc}{\contentsline {paragraph}{Example -- rotation about the $y$ axis.}{2}}
\@writefile{toc}{\contentsline {paragraph}{Setup in \textsf  {omni}.}{3}}
